%YAML 1.1
%TAG !u! tag:unity3d.com,2011:
--- !u!1045 &1
EditorBuildSettings:
  m_ObjectHideFlags: 0
  serializedVersion: 2
  m_Scenes:
  - enabled: 1
    path: Assets/Scenes/Menu.unity
    guid: 25911ac6165828049bd1c44eb5bdd667
  - enabled: 1
    path: Assets/Scenes/Playground.unity
    guid: 9fc0d4010bbf28b4594072e72b8655ab
  - enabled: 1
    path: Assets/Scenes/EndingScreen.unity
    guid: 351cdcc43cd27fd4f8cd13eb10c0be38
  m_configObjects: {}
